sequential_8_bit_multipier.sim/sim_1/behav/xsim/multiplier_regs_loading_tb.vcd
$date
   Sat May 20 16:08:08 2023
$end
$version
  2022.1
$end
$timescale
  1ps
$end
$scope module multiplier_regs_loading_tb $end
$scope module dut $end
$var wire 8 ! md [7:0] $end
$var wire 8 " mr [7:0] $end
$var wire 1 # start $end
$var wire 1 $ clk $end
$var reg 16 % product [15:0] $end
$var wire 16 & md_reg [15:0] $end
$var wire 1 ' iterator $end
$var wire 1 ( started $end
$var reg 8 ) shifted_mr [7:0] $end
$var reg 16 * shifted_md [15:0] $end
$scope module tff1 $end
$var wire 1 + T $end
$var wire 1 $ clk $end
$var reg 1 , Q $end
$upscope $end
$scope module btn $end
$var wire 1 $ clk $end
$var reg 1 - rst $end
$var wire 1 # in $end
$var wire 1 ( out $end
$var wire 1 . w $end
$var wire 1 / w2 $end
$var wire 1 0 clk2 $end
$var wire 1 1 rs $end
$scope module c $end
$var wire 1 $ clk $end
$var wire 1 2 rst $end
$var reg 1 3 clk_out $end
$var wire 32 4 count [31:0] $end
$scope module Counter_1 $end
$var wire 1 $ clk $end
$var wire 1 2 reset $end
$var wire 1 5 en $end
$var reg 32 6 count [31:0] $end
$upscope $end
$upscope $end
$scope module d $end
$var wire 1 0 clk $end
$var wire 1 7 rst $end
$var wire 1 # in $end
$var wire 1 . out $end
$var reg 1 8 q1 $end
$var reg 1 9 q2 $end
$var reg 1 : q3 $end
$upscope $end
$scope module a $end
$var wire 1 . seg $end
$var wire 1 0 clk $end
$var reg 1 ; sigi $end
$var reg 1 < m $end
$upscope $end
$scope module r $end
$var wire 1 0 clock $end
$var wire 1 1 reset $end
$var wire 1 / w $end
$var reg 1 = z $end
$var reg 2 > CurrentState [1:0] $end
$var reg 2 ? NextState [1:0] $end
$upscope $end
$upscope $end
$upscope $end
$upscope $end
$enddefinitions $end
#0
$dumpvars
b1111111 !
b1101000 "
0#
0$
bx %
b1111111 &
0'
x(
bx )
bx *
1+
0,
1-
0.
x/
00
z1
12
03
b0 4
15
b0 6
17
08
09
0:
x;
x<
x=
bx >
bx ?
$end
#5000
1$
1'
1,
#10000
0$
0-
02
07
#15000
1$
0'
0(
b0xxxxxxx )
bx0 *
0,
10
13
0<
0=
#20000
0$
#25000
1$
1'
1,
00
03
#30000
0$
#35000
1$
0'
b0xxxxxx )
bx00 *
0,
0/
10
13
0;
b0 ?
#40000
0$
#45000
1$
1'
1,
00
03
#50000
0$
#55000
1$
0'
b0xxxxx )
bx000 *
0,
10
13
b0 >
#60000
0$
#65000
1$
1'
1,
00
03
#70000
0$
#75000
1$
0'
b0xxxx )
bx0000 *
0,
10
13
#80000
0$
#85000
1$
1'
1,
00
03
#90000
0$
#95000
1$
0'
b0xxx )
bx00000 *
0,
10
13
#100000
1#
0$
#105000
1$
1'
1,
00
03
#110000
0$
#115000
1$
0'
b0xx )
bx000000 *
0,
10
13
18
#120000
0$
#125000
1$
1'
1,
00
03
#130000
0$
#135000
1$
0'
b0x )
bx0000000 *
0,
10
13
19
#140000
0$
#145000
1$
1'
1,
00
03
#150000
0$
#155000
1$
0'
b0 )
bx00000000 *
0,
1.
10
13
1:
#160000
0$
#165000
1$
1'
1,
00
03
#170000
0$
#175000
1$
0'
bx000000000 *
0,
10
13
1<
#180000
0$
#185000
1$
1'
1,
00
03
#190000
0$
#195000
1$
0'
bx0000000000 *
0,
1/
10
13
1;
b1 ?
#200000
0#
0$
#205000
1$
1'
1,
00
03
#210000
0$
#215000
1$
0'
1(
bx00000000000 *
0,
0.
10
13
08
1=
b1 >
b10 ?
#220000
0$
#225000
1$
b0 %
1'
b1101000 )
b1111111 *
1,
00
03
#230000
0$
#235000
1$
0'
0(
0,
10
13
09
0<
0=
b10 >
#240000
0$
#245000
1$
1'
1,
00
03
#250000
0$
#255000
1$
0'
b110100 )
b11111110 *
0,
0/
10
13
0:
0;
b0 ?
#260000
0$
#265000
1$
1'
1,
00
03
#270000
0$
#275000
1$
0'
b11010 )
b111111100 *
0,
10
13
b0 >
#280000
0$
#285000
1$
1'
1,
00
03
#290000
0$
#295000
1$
0'
b1101 )
b1111111000 *
0,
10
13
#300000
1#
0$
#305000
1$
b1111111000 %
1'
1,
00
03
#310000
0$
#315000
1$
0'
b110 )
b11111110000 *
0,
10
13
18
#320000
0$
#325000
1$
1'
1,
00
03
#330000
0$
#335000
1$
0'
b11 )
b111111100000 *
0,
10
13
19
#340000
0$
#345000
1$
b1001111011000 %
1'
1,
00
03
#350000
0$
#355000
1$
0'
b1 )
b1111111000000 *
0,
1.
10
13
1:
#360000
0$
#365000
1$
b11001110011000 %
1'
1,
00
03
#370000
0$
#375000
1$
0'
b0 )
b11111110000000 *
0,
10
13
1<
#380000
0$
#385000
1$
1'
1,
00
03
#390000
0$
#395000
1$
0'
b111111100000000 *
0,
1/
10
13
1;
b1 ?
#400000
0$
#405000
1$
1'
1,
00
03
#410000
0$
#415000
1$
0'
1(
b1111111000000000 *
0,
10
13
1=
b1 >
b10 ?
#420000
0$
#425000
1$
b0 %
1'
b1101000 )
b1111111 *
1,
00
03
#430000
0$
#435000
1$
0'
0(
0,
10
13
0=
b10 >
#440000
0$
#445000
1$
1'
1,
00
03
#450000
0$
#455000
1$
0'
b110100 )
b11111110 *
0,
10
13
#460000
0$
#465000
1$
1'
1,
00
03
#470000
0$
#475000
1$
0'
b11010 )
b111111100 *
0,
10
13
#480000
0$
#485000
1$
1'
1,
00
03
#490000
0$
#495000
1$
0'
b1101 )
b1111111000 *
0,
10
13
#500000
0$
#505000
1$
b1111111000 %
1'
1,
00
03
#510000
0$
#515000
1$
0'
b110 )
b11111110000 *
0,
10
13
#520000
0$
#525000
1$
1'
1,
00
03
#530000
0$
#535000
1$
0'
b11 )
b111111100000 *
0,
10
13
#540000
0$
#545000
1$
b1001111011000 %
1'
1,
00
03
#550000
0$
#555000
1$
0'
b1 )
b1111111000000 *
0,
10
13
#560000
0$
#565000
1$
b11001110011000 %
1'
1,
00
03
#570000
0$
#575000
1$
0'
b0 )
b11111110000000 *
0,
10
13
#580000
0$
#585000
1$
1'
1,
00
03
#590000
0$
#595000
1$
0'
b111111100000000 *
0,
10
13
#600000
0$
#605000
1$
1'
1,
00
03
#610000
0$
#615000
1$
0'
b1111111000000000 *
0,
10
13
#620000
0$
#625000
1$
1'
1,
00
03
#630000
0$
#635000
1$
0'
b1111110000000000 *
0,
10
13
#640000
0$
#645000
1$
1'
1,
00
03
#650000
0$
#655000
1$
0'
b1111100000000000 *
0,
10
13
#660000
0$
#665000
1$
1'
1,
00
03
#670000
0$
#675000
1$
0'
b1111000000000000 *
0,
10
13
#680000
0$
#685000
1$
1'
1,
00
03
#690000
0$
#695000
1$
0'
b1110000000000000 *
0,
10
13
#700000
0$
#705000
1$
1'
1,
00
03
#710000
0$
#715000
1$
0'
b1100000000000000 *
0,
10
13
#720000
0$
#725000
1$
1'
1,
00
03
#730000
0$
#735000
1$
0'
b1000000000000000 *
0,
10
13
#740000
0$
#745000
1$
1'
1,
00
03
#750000
0$
#755000
1$
0'
b0 *
0,
10
13
#760000
0$
#765000
1$
1'
1,
00
03
#770000
0$
#775000
1$
0'
0,
10
13
#780000
0$
#785000
1$
1'
1,
00
03
#790000
0$
#795000
1$
0'
0,
10
13
#800000
0$
#805000
1$
1'
1,
00
03
#810000
0$
#815000
1$
0'
0,
10
13
#820000
0$
#825000
1$
1'
1,
00
03
#830000
0$
#835000
1$
0'
0,
10
13
#840000
0$
#845000
1$
1'
1,
00
03
#850000
0$
#855000
1$
0'
0,
10
13
#860000
0$
#865000
1$
1'
1,
00
03
#870000
0$
#875000
1$
0'
0,
10
13
#880000
0$
#885000
1$
1'
1,
00
03
#890000
0$
#895000
1$
0'
0,
10
13
#900000
0$
#905000
1$
1'
1,
00
03
#910000
0$
#915000
1$
0'
0,
10
13
#920000
0$
#925000
1$
1'
1,
00
03
#930000
0$
#935000
1$
0'
0,
10
13
#940000
0$
#945000
1$
1'
1,
00
03
#950000
0$
#955000
1$
0'
0,
10
13
#960000
0$
#965000
1$
1'
1,
00
03
#970000
0$
#975000
1$
0'
0,
10
13
#980000
0$
#985000
1$
1'
1,
00
03
#990000
0$
#995000
1$
0'
0,
10
13
